                  0.00000000099999997171806853657471947
                  0.00000000000000000000000000000000000
                  0.00000000999999993922529029077850282
                  0.00000000000000000000000000000000000
                  0.00000004999999969612645145389251411
                  0.00000000000000000000000000000000000
                  0.00000010000000116860974230803549290
                  0.00000000000000000000000000000000000
                  0.00000050000000584304871154017746449
                  0.00000000000000000000000000000000000 
                 -0.00000000000000000000031850065643734
      -634035437189.08476365016042346667527990000000000
                 -0.00000000000000000000003185006491108
       -63403542313.32037560210121997987903751000000000
                 -0.00000000000000000000000637001295961
       -12680708464.66708763778053148559214572000000000
                 -0.00000000000000000000000318500640910
        -6340354120.95811162952521988555050510600000000
                 -0.00000000000000000000000063700125921
        -1268070826.19463193574462073404050776700000000 
                 -0.00000000018131268970199041952571512
     -1359728105692.23974722024618908330037200000000000
                 -0.00000000181312689288573944141026304
      -135972807550.02105604817739493554443990000000000
                 -0.00000000906563328757795417482771325
       -27194561510.00421127856478411334448713000000000
                 -0.00000001813126395472020134602082561
       -13597280513.46588190566638242653736625000000000
                 -0.00000009065620207197534116349499863
        -2719456102.69317707042660069059257562200000000 
                  0.00000000000000000000000000000000000
                  0.00000000000000000000000000000000000
                  0.00000000000000000000000000000000000
                  0.00000000000000000000000000000000000
                  0.00000000000000000000000000000000000
                  0.00000000000000000000000000000000000
                  0.00000000000000000000000000000000000
                  0.00000000000000000000000000000000000
                  0.00000000000000000000000000000000000
                  0.00000000000000000000000000000000000 
                  0.00000000000000000000000000000000000
                  0.00000000000000000000000000000000000
                  0.00000000000000000000000000000000000
                  0.00000000000000000000000000000000000
                  0.00000000000000000000000000000000000
                  0.00000000000000000000000000000000000
                  0.00000000000000000000000000000000000
                  0.00000000000000000000000000000000000
                  0.00000000000000000000000000000000000
                  0.00000000000000000000000000000000000
